{
  "template": {
    "draft": false,
    "internal": false,
    "name": "template",
    "short": "",
    "text": "",
    "topics": ""
  },
  "config": {
    "draft": {
      "component": "v-checkbox"
    },
    "internal": {
      "component": "v-checkbox"
    },
    "name": {
      "component": "v-text-field"
    },
    "short": {
      "component": "v-textarea"
    },
    "createdBy": {
      "parent": {
        "hidden": true
      }
    },
    "text": {
      "component": "v-text-field"
    },
    "topics": {
      "component": "v-text-field"
    },
    "createdAt": {
      "parent": {
        "hidden": true
      }
    },
    "updatedAt": {
      "parent": {
        "hidden": true
      }
    },
    "index": {
      "parent": {
        "hidden": true
      }
    }
  },
  "searchKey": "name"
}