{
  "template": {
    "approved": true,
    "catalogId": "",
    "links": [
      {
        "name": "",
        "url": ""
      }
    ],
    "members": "",
    "title": "template",
    "year": ""
  },
  "config": {
    "approved": {
      "component": "v-checkbox"
    },
    "catalogId": {
      "component": "v-text-field"
    },
    "links.0.name": {
      "component": "v-text-field",
      "props": {
        "label": "Name"
      }
    },
    "links.0.url": {
      "component": "v-text-field",
      "props": {
        "label": "Url"
      }
    },
    "members": {
      "component": "v-text-field"
    },
    "title": {
      "component": "v-text-field"
    },
    "year": {
      "component": "v-text-field"
    },
    "index": {
      "parent": {
        "hidden": true
      }
    }
  }
}